Applications of Item Response Theory in R
…
item_params

## # A tibble: 40 x 5
##    itemid       a b                c     u
##    <chr>    <dbl> <list>       <dbl> <dbl>
##  1 2487   0.0227  <dbl [1]> 0.119        1
##  2 2488   1.30    <dbl [1]> 0.000212     1
##  3 2489   2.41    <dbl [1]> 0.109        1
##  4 2490   0.906   <dbl [3]> 0            1
##  5 2491   0.503   <dbl [1]> 0.0146       1
##  6 2788   0.240   <dbl [6]> 0            1
##  7 2790   1.52    <dbl [2]> 0            1
##  8 2792   0.00579 <dbl [1]> 0.106        1
##  9 2794   0.397   <dbl [1]> 0.00147      1
## 10 2797   0.899   <dbl [1]> 0.00341      1
## #  with 30 more rows

Person Parameters

We are also likely interested in the person parameters, or the respondent ability estimates. We can extract the ability estimates using the fscores() function. When then do some formatting to get the scores into a nice data frame, and add a studentid column so we can keep track of which ability estimate goes with each respondent.

person_params <- fscores(model_3pl) %>%
  as_tibble(.name_repair = ~"theta") %>%
  rowid_to_column(var = "studentid")

person_params

## # A tibble: 5,000 x 2
##    studentid  theta
##        <int>  <dbl>
##  1         1 -0.149
##  2         2  0.575
##  3         3  1.30 
##  4         4  0.490
##  5         5  0.900
##  6         6 -0.617
##  7         7 -0.246
##  8         8 -0.897
##  9         9  0.933
## 10        10  0.474
## #  with 4,990 more rows
…
