Applications of Item Response Theory in R
…
The last problem to solve is that the coefficients are returned in a list format. This is done because, depending on the estimated model, not every item will have the same set of parameters (e.g., if we included polytomous items). Thus, for consistency, the mirt package always returns the parameters in a list format, which can handle any configuration of parameters. However, with some tidyverse magic, we can create a data frame that has one row per item since all of our items have the same set of parameters.

item_params <- coef(model_3pl, IRTpars = TRUE) %>%
  list_modify(GroupPars = zap()) %>%
  imap_dfr(function(x, y) {
    as_tibble(x) %>%
      add_column(itemid = y, .before = 1) %>%
      select(itemid, a, b, everything())
  }) %>%
  rename(c = g) %>%
  replace_na(list(c = 0, u = 1))

item_params

## # A tibble: 29 x 5
##    itemid     a      b       c     u
##    <chr>  <dbl>  <dbl>   <dbl> <dbl>
##  1 2487   1.12   3.69  0.241       1
##  2 2488   1.32   1.85  0.00537     1
##  3 2489   2.20   0.662 0.0935      1
##  4 2491   0.540  0.360 0.0784      1
##  5 2792   0.155 19.5   0.193       1
##  6 2794   0.459  6.97  0.0188      1
##  7 2797   0.911 -0.367 0.0446      1
##  8 2829   0.381 13.3   0.0147      1
##  9 2830   2.33  -0.580 0.0842      1
## 10 2831   0.938  1.20  0.0130      1
## #  with 19 more rows

Person Parameters

We are also likely interested in the person parameters, or the respondent ability estimates. We can extract the ability estimates using the fscores() function. When then do some formatting to get the scores into a nice data frame, and add a studentid column so we can keep track of which ability estimate goes with each respondent.

person_params <- fscores(model_3pl) %>%
  as_tibble(.name_repair = ~"theta") %>%
  rowid_to_column(var = "studentid")

person_params

## # A tibble: 5,000 x 2
##    studentid  theta
##        <int>  <dbl>
##  1         1 -0.165
##  2         2  0.470
##  3         3  1.51 
##  4         4  0.175
##  5         5  1.18 
##  6         6 -0.462
##  7         7 -0.160
##  8         8 -1.02 
##  9         9  0.723
## 10        10  0.910
## #  with 4,990 more rows
…
